<svg xmlns="http://www.w3.org/2000/svg" width="38" height="37" viewBox="0 0 38 37">
    <path fill="#FFF" fill-rule="evenodd" d="M15.753 19.755l-3.703-6.888-6.504 12.066H8.9l.639-1.165h5.02l.621 1.165h4.686c2.963 0 5.296-1.867 5.925-4.558v4.558h3.088v-9.122h3.575v-2.944H22.247v.438a6.497 6.497 0 0 0-2.381-.438h-4.113v6.888zm9.412-3.944h.626v1.599a5.935 5.935 0 0 0-.626-1.599zM11.509.8h14.98l10.604 10.6V26.4L26.489 37H11.51L.907 26.401V11.4L11.51.8zm8.357 14.697c2.013 0 3.448 1.375 3.448 3.395s-1.435 3.395-3.448 3.395h-1.468v-6.79h1.468zm-6.823 5.471h-2.005l1.01-1.852.995 1.852z"/>
</svg>
