<?xml version="1.0" encoding="UTF-8"?>
<svg width="1440px" height="1024px" viewBox="0 0 1440 1024" version="1.1" xmlns="http://www.w3.org/2000/svg" xmlns:xlink="http://www.w3.org/1999/xlink">
    <!-- Generator: Sketch 52.5 (67469) - http://www.bohemiancoding.com/sketch -->
    <title>Combined Shape</title>
    <desc>Created with Sketch.</desc>
    <g id="Desktop" stroke="none" stroke-width="1" fill="none" fill-rule="evenodd">
        <g id="Desktop-HD-1" fill="#FFFFFF" fill-rule="nonzero">
            <path d="M0,0 L1440,0 L1440,1024 L0,1024 L0,0 Z M167,470 L167,635 L207.666241,635 L207.666241,510.626554 L248.333759,510.626554 L248.333759,635 L289,635 L289,470 L167,470 Z M300,469.700337 L340,469.700337 L340,429 L300,429 L300,469.700337 Z M300,635 L340,635 L340,510.401314 L300,510.401314 L300,635 Z M473.800383,470 L473.800383,510.626554 L433.200893,510.626554 L433.200893,635 L473.800383,635 L473.800383,510.626554 L514.399872,510.626554 L514.399872,635 L555,635 L555,470 L473.800383,470 Z M352,470 L352,635 L392.600765,635 L392.600765,510.626554 L433.200893,510.626554 L433.200893,470 L352,470 Z M566,389 L566,635 L688,635 L688,470.169166 L606.666028,470.169166 L606.666028,389 L566,389 Z M606.666028,594.415736 L606.666028,510.754705 L647.332695,510.754705 L647.332695,594.415736 L606.666028,594.415736 Z M699,389 L699,635 L780,635 L780,594.415736 L739.499364,594.415736 L739.499364,389 L699,389 Z M925,389 L925,635 L1047,635 L1047,470.169166 L965.666454,470.169166 L965.666454,389 L925,389 Z M965.666454,594.415736 L965.666454,510.754705 L1006.33291,510.754705 L1006.33291,594.415736 L965.666454,594.415736 Z M1057,635 L1179,635 L1179,470 L1057,470 L1057,635 Z M1097.66667,594.374084 L1097.66667,510.627192 L1138.33333,510.627192 L1138.33333,594.374084 L1097.66667,594.374084 Z M1191,389 L1191,635 L1231.5,635 L1231.5,470.169166 L1272,470.169166 L1272,429.584264 L1231.5,429.584264 L1231.5,389 L1191,389 Z M792,470 L792,532.186404 L792,572.812958 L792,635 L914,635 L914,594.373446 L873.33312,594.373446 L832.666241,594.373446 L832.666241,572.812958 L873.33312,572.812958 L914,572.812958 L914,532.186404 L914,470 L792,470 Z M832.666241,532.186404 L832.666241,510.625916 L873.33312,510.625916 L873.33312,532.186404 L832.666241,532.186404 Z" id="Combined-Shape"></path>
        </g>
    </g>
</svg>